160.60.250.2
1	        R
2	A
3	A
4	A
5	A
6	A
7	A
8	A
9	A
10	A
11	A
12	        R
13	A
14	A
15	A
16	        R
17	        R
18	A
19	A
20	A
21	        R
22	        R
23	        R
24	A
25	A
26	        R
27	        R
28	        R
29	A
30	        R
31	        R
32	        R
33	A
34	        R
35	        R
36	        R
37	        R
38	        R
39	        R
40	A
41	A
42	        R
43	        R
44	A
45	A
46	A
47	A
48	A
49	NP
50	NP
51	NP
52	NP
53	NP
54	NP

