Load Sharing Monitor
Config    Current    Agg       Ld Share    Ld Share  Agg   Link    Link Up
Master    Master     Control   Algorithm   Group     Mbr   State   Transitions
==============================================================================
    47     47        Static    L3_L4       47         Y      A        1
                               L3_L4       48         Y      A        1
==============================================================================

Exceptions: L3_L4 , 
OK: 47 , 	Not OK: 	#Esrp record:44
