Load Sharing Monitor
Config    Current    Agg       Ld Share    Ld Share  Agg   Link    Link Up
Master    Master     Control   Algorithm   Group     Mbr   State   Transitions
==============================================================================
    43     43        Static    L2          43         Y      A        1
                               L2          44         Y      A        1
==============================================================================

Exceptions: L2 , 
OK: 43 , 	Not OK: 	#Esrp record:48
