160.20.250.2
1	A
2	A
3	A
4	A
5	A
6	A
7	A
8	A
9	A
10	        R
11	        R
12	        R
13	        R
14	        R
15	        R
16	        R
17	A
18	A
19	A
20	A
21	        R
22	A
23	A
24	A
25	NP
26	NP

