Load Sharing Monitor
Config    Current    Agg       Ld Share    Ld Share  Agg   Link    Link Up
Master    Master     Control   Algorithm   Group     Mbr   State   Transitions
==============================================================================
    27     27        Static    L3_L4       27         Y      A       15
                               L3_L4       28         Y      A       14
==============================================================================

Exceptions: L3_L4 , 
OK: 27 , 	Not OK: 	#Esrp record:25
